Human rights score and air pollution contrast
…
Data from 2016

Lets see the data in the year 2016.

# HRS and air pollution (2016)
hrs_2016 <- human.rights %>%
  filter(year == 2016)

ap_2016 <- air.pollution %>%
  filter(year == 2016)

hrs_2016

## # A tibble: 195 x 4
##    entity              code   year   score
##    <chr>               <chr> <dbl>   <dbl>
##  1 Afghanistan         AFG    2016 -2.24
##  2 Albania             ALB    2016  0.833
##  3 Algeria             DZA    2016  0.266
##  4 Andorra             AND    2016  4.23
##  5 Angola              AGO    2016 -0.388
##  6 Antigua and Barbuda ATG    2016  1.43
##  7 Argentina           ARG    2016  0.772
##  8 Armenia             ARM    2016 -0.0189
##  9 Australia           AUS    2016  1.76
## 10 Austria             AUT    2016  2.24
## # ... with 185 more rows

ap_2016

## # A tibble: 240 x 4
##    entity              code   year air.poll.mean
##    <chr>               <chr> <dbl>         <dbl>
##  1 Afghanistan         AFG    2016         62.9
##  2 Albania             ALB    2016         14.6
##  3 Algeria             DZA    2016         37.2
##  4 American Samoa      ASM    2016          3.76
##  5 Andorra             AND    2016         10.9
##  6 Angola              AGO    2016         36.2
##  7 Antigua and Barbuda ATG    2016         15.7
##  8 Arab World          <NA>   2016         83.2
##  9 Argentina           ARG    2016         14.1
## 10 Armenia             ARM    2016         27.0
## # ... with 230 more rows
…
countries <- as.vector(countries$Var1)

# Extracting countries
hrs_2016 <- hrs_2016 %>%
  filter(entity %in% countries)

ap_2016 <- ap_2016 %>%
  filter(entity %in% countries)

hrs_2016

## # A tibble: 184 x 4
##    entity              code   year   score
##    <chr>               <chr> <dbl>   <dbl>
##  1 Afghanistan         AFG    2016 -2.24
##  2 Albania             ALB    2016  0.833
##  3 Algeria             DZA    2016  0.266
##  4 Andorra             AND    2016  4.23
##  5 Angola              AGO    2016 -0.388
##  6 Antigua and Barbuda ATG    2016  1.43
##  7 Argentina           ARG    2016  0.772
##  8 Armenia             ARM    2016 -0.0189
##  9 Australia           AUS    2016  1.76
## 10 Austria             AUT    2016  2.24
## # ... with 174 more rows

ap_2016

## # A tibble: 184 x 4
##    entity              code   year air.poll.mean
##    <chr>               <chr> <dbl>         <dbl>
##  1 Afghanistan         AFG    2016         62.9
##  2 Albania             ALB    2016         14.6
##  3 Algeria             DZA    2016         37.2
##  4 Andorra             AND    2016         10.9
##  5 Angola              AGO    2016         36.2
##  6 Antigua and Barbuda ATG    2016         15.7
##  7 Argentina           ARG    2016         14.1
##  8 Armenia             ARM    2016         27.0
##  9 Australia           AUS    2016          6.13
## 10 Austria             AUT    2016         15.0
## # ... with 174 more rows
…
